{
    "name": "CoralRaider",
    "tier": 5,
    "speed": 275,
    "health": 300,
    "damage": 50,
    "boosts": 3,
    "evolutionXp": 60,
    "evolutions": ["Sutorai"],
    "texture": "./creatures/CoralRaider.png",
    "hitbox": [
        {"x": -30,"y": -20},
        {"x": 30,"y": -20},
        {"x": 30,"y": 20},
        {"x": -30,"y": 20}
    ],
    "nativeBiome": {
        "water": true
    },
    "time": {
        "water": 10
    },
    "canWalk": false
}