{
    "name": "CoralMite",
    "tier": 2,
    "speed": 180,
    "health": 150,
    "damage": 30,
    "boosts": 1,
    "evolutionXp": 20,
    "evolutions": ["Nudiray"],
    "texture": "./creatures/CoralMite.png",
    "hitbox": [
        { "x": -25, "y": -30 },
        { "x": 25, "y": -30 },
        { "x": 25, "y": 30 },
        { "x": -25, "y": 30 }
    ],
    "nativeBiome":{
        "water": true
    },
    "time":{
        "water":10
    },
    "canWalk": false
}
